14 Danmarks Statistik | ECB Yields
…
            ECB Yields

14 Danmarks Statistik

14.1 Byggekonjunktur

## # A tibble: 2,112 × 5
##    BYGFASE         ANVENDELSE   TID        value[,1]    ema
##    <fct>           <chr>        <date>         <dbl>  <dbl>
##  1 Tilladt byggeri Etageboliger 2000-01-01    -1.05  -0.867
##  2 Tilladt byggeri Etageboliger 2000-02-01    -0.854 -0.865
##  3 Tilladt byggeri Etageboliger 2000-03-01    -0.800 -0.852
##  4 Tilladt byggeri Etageboliger 2000-04-01    -0.669 -0.815
##  5 Tilladt byggeri Etageboliger 2000-05-01     0.225 -0.607
##  6 Tilladt byggeri Etageboliger 2000-06-01    -0.501 -0.586
##  7 Tilladt byggeri Etageboliger 2000-07-01    -1.24  -0.716
##  8 Tilladt byggeri Etageboliger 2000-08-01    -0.917 -0.756
##  9 Tilladt byggeri Etageboliger 2000-09-01    -0.562 -0.718
## 10 Tilladt byggeri Etageboliger 2000-10-01    -0.499 -0.674
## # … with 2,102 more rows
…
