4 Indicators | Markets
…
4.8 Individual patterns

4.8.1 DK Long Interest Rate

## # A tibble: 31 × 4
##    x1         x2    corr_value corr_time_value
##    <chr>      <chr>      <dbl>           <dbl>
##  1 Lang.rente LQD            0          -0.897
##  2 Lang.rente MUB            2          -0.887
##  3 Lang.rente BLV            2          -0.872
##  4 Lang.rente IEF            0          -0.882
##  5 Lang.rente TLT            0          -0.870
##  6 Lang.rente VGLT           0          -0.865
##  7 Lang.rente ZROZ           0          -0.868
##  8 Lang.rente TMF            0          -0.859
##  9 Lang.rente IEI            2          -0.870
## 10 Lang.rente M2V            0           0.981
## # … with 21 more rows
…
